…
``` r
output = vector("list", length = 100)

for (i in 1:100) {
  
  output[[i]] = sim_t_test(mu = 0)
  
}

bind_rows(output)
```

    ## # A tibble: 100 x 8
    ##    estimate statistic p.value parameter conf.low conf.high method    alternative
    ##       <dbl>     <dbl>   <dbl>     <dbl>    <dbl>     <dbl> <chr>     <chr>      
    ##  1   -0.543    -0.724  0.475         29   -2.08      0.992 One Samp~ two.sided  
    ##  2    1.01      1.17   0.253         29   -0.763     2.79  One Samp~ two.sided  
    ##  3   -0.165    -0.167  0.868         29   -2.19      1.85  One Samp~ two.sided  
    ##  4   -0.621    -0.587  0.562         29   -2.79      1.54  One Samp~ two.sided  
    ##  5    1.28      1.34   0.190         29   -0.673     3.23  One Samp~ two.sided  
    ##  6   -1.54     -1.60   0.119         29   -3.50      0.422 One Samp~ two.sided  
    ##  7   -0.809    -1.05   0.302         29   -2.38      0.765 One Samp~ two.sided  
    ##  8   -1.33     -1.79   0.0837        29   -2.84      0.188 One Samp~ two.sided  
    ##  9   -0.140    -0.176  0.861         29   -1.76      1.48  One Samp~ two.sided  
    ## 10    0.933     1.13   0.269         29   -0.762     2.63  One Samp~ two.sided  
    ## # ... with 90 more rows
…
tibble(
  mu = c(0, 1, 2, 3, 4, 5, 6)
) %>% 
  mutate(
    output_lists = map(.x = mu, ~rerun(100, sim_t_test(mu = .x))), 
estimate_df = map(output_lists, bind_rows
  )
) %>% 
  unnest(estimate_df) %>% 
  select(mu, estimate, p.value)
```

    ## # A tibble: 700 x 3
    ##       mu estimate p.value
    ##    <dbl>    <dbl>   <dbl>
    ##  1     0  0.960    0.360 
    ##  2     0  1.68     0.125 
    ##  3     0 -0.550    0.612 
    ##  4     0 -1.40     0.136 
    ##  5     0 -1.05     0.324 
    ##  6     0 -0.665    0.534 
    ##  7     0  0.238    0.756 
    ##  8     0  0.308    0.696 
    ##  9     0 -1.58     0.0846
    ## 10     0 -0.00649  0.995 
    ## # ... with 690 more rows
